Library\Bee\artifacts\mvdfrm\Unity.2D.Animation.Editor.ref.dll_7684A0691EFAE0C5.mvfrm
Library\Bee\artifacts\mvdfrm\Unity.2D.Animation.Runtime.ref.dll_4F6FC3113C736696.mvfrm
Library\Bee\artifacts\mvdfrm\Unity.2D.Common.Editor.ref.dll_4C20894B5CB48E48.mvfrm
Library\Bee\artifacts\mvdfrm\Unity.2D.Common.Runtime.ref.dll_F7575DE93DDA2363.mvfrm
Library\Bee\artifacts\mvdfrm\Unity.2D.IK.Editor.ref.dll_3536AAE3BA6951E1.mvfrm
Library\Bee\artifacts\mvdfrm\Unity.2D.IK.Runtime.ref.dll_8F5077191B7C25BA.mvfrm
Library\Bee\artifacts\mvdfrm\Unity.2D.Path.Editor.ref.dll_FDE000065FED94DE.mvfrm
Library\Bee\artifacts\mvdfrm\Unity.2D.Sprite.Editor.ref.dll_6C8185F9E5AE014E.mvfrm
Library\Bee\artifacts\mvdfrm\Unity.2D.SpriteShape.Editor.ref.dll_D1E2945540037DAD.mvfrm
Library\Bee\artifacts\mvdfrm\Unity.2D.SpriteShape.Runtime.ref.dll_61D32A7E920E672E.mvfrm
Library\Bee\artifacts\mvdfrm\Unity.Burst.Editor.ref.dll_222C82CECB47A66F.mvfrm
Library\Bee\artifacts\mvdfrm\Unity.Burst.ref.dll_3835BB91EC2C0D62.mvfrm
Library\Bee\artifacts\mvdfrm\Unity.InternalAPIEditorBridge.001.ref.dll_25F89DC3AAE256B8.mvfrm
Library\Bee\artifacts\mvdfrm\Unity.InternalAPIEngineBridge.001.ref.dll_1873566E0FF13DFD.mvfrm
Library\Bee\artifacts\mvdfrm\Unity.Mathematics.Editor.ref.dll_553CFFCCE7430329.mvfrm
Library\Bee\artifacts\mvdfrm\Unity.Mathematics.ref.dll_66DE4C1C9A03AD08.mvfrm
Library\Bee\artifacts\mvdfrm\Unity.PlasticSCM.Editor.ref.dll_A558B9E65539D7D0.mvfrm
Library\Bee\artifacts\mvdfrm\Unity.RenderPipeline.Universal.ShaderLibrary.ref.dll_D7DD283915E480F1.mvfrm
Library\Bee\artifacts\mvdfrm\Unity.RenderPipelines.Core.Editor.ref.dll_AA6E4515E60A494B.mvfrm
Library\Bee\artifacts\mvdfrm\Unity.RenderPipelines.Core.Runtime.ref.dll_CA4A63933BEF3AB0.mvfrm
Library\Bee\artifacts\mvdfrm\Unity.RenderPipelines.Core.ShaderLibrary.ref.dll_38159DB35CC29EFE.mvfrm
Library\Bee\artifacts\mvdfrm\Unity.RenderPipelines.ShaderGraph.ShaderGraphLibrary.ref.dll_DF61AD73468C057E.mvfrm
Library\Bee\artifacts\mvdfrm\Unity.RenderPipelines.Universal.Editor.ref.dll_ECAA9E877BE61FD7.mvfrm
Library\Bee\artifacts\mvdfrm\Unity.RenderPipelines.Universal.Runtime.ref.dll_9692FC5A7F88C564.mvfrm
Library\Bee\artifacts\mvdfrm\Unity.RenderPipelines.Universal.Shaders.ref.dll_D6FB0BA3BDF7609A.mvfrm
Library\Bee\artifacts\mvdfrm\Unity.Rider.Editor.ref.dll_DA88E6A3E9EB6155.mvfrm
Library\Bee\artifacts\mvdfrm\Unity.Searcher.Editor.ref.dll_1D712DD21DFFF248.mvfrm
Library\Bee\artifacts\mvdfrm\Unity.Services.Core.Analytics.ref.dll_CBCA382B387CF7F9.mvfrm
Library\Bee\artifacts\mvdfrm\Unity.Services.Core.Environments.ref.dll_E7BB04DD211B7353.mvfrm
Library\Bee\artifacts\mvdfrm\Unity.Services.Core.ref.dll_8B79153BEDCD5611.mvfrm
Library\Bee\artifacts\mvdfrm\Unity.ShaderGraph.Editor.ref.dll_CA6C4521A25CEDB6.mvfrm
Library\Bee\artifacts\mvdfrm\Unity.TextMeshPro.Editor.ref.dll_D0BA3615D322EF6C.mvfrm
Library\Bee\artifacts\mvdfrm\Unity.TextMeshPro.ref.dll_02929A3ECA791895.mvfrm
Library\Bee\artifacts\mvdfrm\Unity.Timeline.Editor.ref.dll_17F688653313AA4C.mvfrm
Library\Bee\artifacts\mvdfrm\Unity.Timeline.ref.dll_16F8EA6B67022FB5.mvfrm
Library\Bee\artifacts\mvdfrm\Unity.VSCode.Editor.ref.dll_AE868214B5ED3D13.mvfrm
Library\Bee\artifacts\mvdfrm\Unity.VisualScripting.Core.Editor.ref.dll_514B12BC0D1D8DB7.mvfrm
Library\Bee\artifacts\mvdfrm\Unity.VisualScripting.Core.ref.dll_BF8650D11F8E519A.mvfrm
Library\Bee\artifacts\mvdfrm\Unity.VisualScripting.Flow.Editor.ref.dll_CE7BFB6B1BFC18F8.mvfrm
Library\Bee\artifacts\mvdfrm\Unity.VisualScripting.Flow.ref.dll_06973127A197C649.mvfrm
Library\Bee\artifacts\mvdfrm\Unity.VisualScripting.SettingsProvider.Editor.ref.dll_EE1755C0672F8EE2.mvfrm
Library\Bee\artifacts\mvdfrm\Unity.VisualScripting.Shared.Editor.ref.dll_6CA31C4FA5286AB1.mvfrm
Library\Bee\artifacts\mvdfrm\Unity.VisualScripting.State.Editor.ref.dll_DC1879B0E64A8F15.mvfrm
Library\Bee\artifacts\mvdfrm\Unity.VisualScripting.State.ref.dll_900B338E31D9525C.mvfrm
Library\Bee\artifacts\mvdfrm\Unity.VisualStudio.Editor.ref.dll_0FE027DDD6F41767.mvfrm
Library\Bee\artifacts\mvdfrm\UnityEditor.UI.ref.dll_0174E068A5FA251B.mvfrm
Library\Bee\artifacts\mvdfrm\UnityEngine.UI.ref.dll_BDDAB6C3AC1C4D86.mvfrm
Library\Bee\artifacts\mvdfrm\UnityEditor.CoreModule.dll_1A22598068A4B4CC.mvfrm
Library\Bee\artifacts\mvdfrm\UnityEditor.DeviceSimulatorModule.dll_195C3AF87A2BC6B5.mvfrm
Library\Bee\artifacts\mvdfrm\UnityEditor.DiagnosticsModule.dll_0E7C78FC118FC3C3.mvfrm
Library\Bee\artifacts\mvdfrm\UnityEditor.dll_473034C8F0995B09.mvfrm
Library\Bee\artifacts\mvdfrm\UnityEditor.GraphViewModule.dll_4B96671F09118D3A.mvfrm
Library\Bee\artifacts\mvdfrm\UnityEditor.PackageManagerUIModule.dll_4D8E4805CC0A9B28.mvfrm
Library\Bee\artifacts\mvdfrm\UnityEditor.QuickSearchModule.dll_998BFA096A66C01C.mvfrm
Library\Bee\artifacts\mvdfrm\UnityEditor.SceneTemplateModule.dll_010D1DEDBA795A1D.mvfrm
Library\Bee\artifacts\mvdfrm\UnityEditor.TextCoreFontEngineModule.dll_29A1A259DCE4B0CA.mvfrm
Library\Bee\artifacts\mvdfrm\UnityEditor.TextCoreTextEngineModule.dll_7189D8CB6C6869E8.mvfrm
Library\Bee\artifacts\mvdfrm\UnityEditor.UIBuilderModule.dll_A01F143B7BCA066E.mvfrm
Library\Bee\artifacts\mvdfrm\UnityEditor.UIElementsModule.dll_AD1AAA0AADE60888.mvfrm
Library\Bee\artifacts\mvdfrm\UnityEditor.UIElementsSamplesModule.dll_26443B6E30CFF965.mvfrm
Library\Bee\artifacts\mvdfrm\UnityEditor.UIServiceModule.dll_D911259E65015688.mvfrm
Library\Bee\artifacts\mvdfrm\UnityEditor.UnityConnectModule.dll_D9A2D8817857C982.mvfrm
Library\Bee\artifacts\mvdfrm\UnityEngine.AccessibilityModule.dll_33B28984BAEF81BA.mvfrm
Library\Bee\artifacts\mvdfrm\UnityEngine.AIModule.dll_5D891BBE8FD5E1A0.mvfrm
Library\Bee\artifacts\mvdfrm\UnityEngine.AndroidJNIModule.dll_2B6392DDF705775E.mvfrm
Library\Bee\artifacts\mvdfrm\UnityEngine.AnimationModule.dll_1A1BE347E36E61E0.mvfrm
Library\Bee\artifacts\mvdfrm\UnityEngine.ARModule.dll_16FBE0C1ECF34069.mvfrm
Library\Bee\artifacts\mvdfrm\UnityEngine.AssetBundleModule.dll_DD752CFACCCD750E.mvfrm
Library\Bee\artifacts\mvdfrm\UnityEngine.AudioModule.dll_1C122A692A2C4AD2.mvfrm
Library\Bee\artifacts\mvdfrm\UnityEngine.ClothModule.dll_82FA8764044929B6.mvfrm
Library\Bee\artifacts\mvdfrm\UnityEngine.CoreModule.dll_3D432CD310AA1FF7.mvfrm
Library\Bee\artifacts\mvdfrm\UnityEngine.CrashReportingModule.dll_2F0D8195658ED3EF.mvfrm
Library\Bee\artifacts\mvdfrm\UnityEngine.DirectorModule.dll_A6583A19CB0333D4.mvfrm
Library\Bee\artifacts\mvdfrm\UnityEngine.dll_79D47BA14F0CE7EE.mvfrm
Library\Bee\artifacts\mvdfrm\UnityEngine.DSPGraphModule.dll_ABA99B833D6404F5.mvfrm
Library\Bee\artifacts\mvdfrm\UnityEngine.GameCenterModule.dll_55B0DCF8BD46684F.mvfrm
Library\Bee\artifacts\mvdfrm\UnityEngine.GIModule.dll_F5C564CC2B84C9BA.mvfrm
Library\Bee\artifacts\mvdfrm\UnityEngine.GridModule.dll_1AB448C128FEB5EE.mvfrm
Library\Bee\artifacts\mvdfrm\UnityEngine.HotReloadModule.dll_9B64A14DBEA17D62.mvfrm
Library\Bee\artifacts\mvdfrm\UnityEngine.ImageConversionModule.dll_8AFAFB1A6C0B8C2D.mvfrm
Library\Bee\artifacts\mvdfrm\UnityEngine.IMGUIModule.dll_5471C9CFF05DDEB3.mvfrm
Library\Bee\artifacts\mvdfrm\UnityEngine.InputLegacyModule.dll_6EBA481964BF2AFF.mvfrm
Library\Bee\artifacts\mvdfrm\UnityEngine.InputModule.dll_8287F219A0646F76.mvfrm
Library\Bee\artifacts\mvdfrm\UnityEngine.JSONSerializeModule.dll_93CA12C0BA2AE244.mvfrm
Library\Bee\artifacts\mvdfrm\UnityEngine.LocalizationModule.dll_978C17E9C15B8F41.mvfrm
Library\Bee\artifacts\mvdfrm\UnityEngine.ParticleSystemModule.dll_821FCAE1D3A05F7D.mvfrm
Library\Bee\artifacts\mvdfrm\UnityEngine.PerformanceReportingModule.dll_B229883C75616BB6.mvfrm
Library\Bee\artifacts\mvdfrm\UnityEngine.Physics2DModule.dll_66C1D338846B5975.mvfrm
Library\Bee\artifacts\mvdfrm\UnityEngine.PhysicsModule.dll_C8A331D07BA763E3.mvfrm
Library\Bee\artifacts\mvdfrm\UnityEngine.ProfilerModule.dll_D89E7350645CBAE1.mvfrm
Library\Bee\artifacts\mvdfrm\UnityEngine.RuntimeInitializeOnLoadManagerInitializerModule.dll_2262E294A76F343E.mvfrm
Library\Bee\artifacts\mvdfrm\UnityEngine.ScreenCaptureModule.dll_ADB1C045CE970EA6.mvfrm
Library\Bee\artifacts\mvdfrm\UnityEngine.SharedInternalsModule.dll_0F0C39EFE339877D.mvfrm
Library\Bee\artifacts\mvdfrm\UnityEngine.SpriteMaskModule.dll_3EDD4F88DEB5FDC9.mvfrm
Library\Bee\artifacts\mvdfrm\UnityEngine.SpriteShapeModule.dll_F6D65A55826FAD18.mvfrm
Library\Bee\artifacts\mvdfrm\UnityEngine.StreamingModule.dll_CEB0D09832F6191E.mvfrm
Library\Bee\artifacts\mvdfrm\UnityEngine.SubstanceModule.dll_AB5BE4E17E49172C.mvfrm
Library\Bee\artifacts\mvdfrm\UnityEngine.SubsystemsModule.dll_A98AB5EAACFDE5DC.mvfrm
Library\Bee\artifacts\mvdfrm\UnityEngine.TerrainModule.dll_E2E9AD3F5165ACD1.mvfrm
Library\Bee\artifacts\mvdfrm\UnityEngine.TerrainPhysicsModule.dll_829A73B4ECE35A0A.mvfrm
Library\Bee\artifacts\mvdfrm\UnityEngine.TextCoreFontEngineModule.dll_A8011DACEFE26F95.mvfrm
Library\Bee\artifacts\mvdfrm\UnityEngine.TextCoreTextEngineModule.dll_EFE9541E7F6628B3.mvfrm
Library\Bee\artifacts\mvdfrm\UnityEngine.TextRenderingModule.dll_D6F1325085CE8E9B.mvfrm
Library\Bee\artifacts\mvdfrm\UnityEngine.TilemapModule.dll_81E614C069228DDA.mvfrm
Library\Bee\artifacts\mvdfrm\UnityEngine.TLSModule.dll_1DDCA524175D83F7.mvfrm
Library\Bee\artifacts\mvdfrm\UnityEngine.UIElementsModule.dll_ADC91752B02A21D3.mvfrm
Library\Bee\artifacts\mvdfrm\UnityEngine.UIElementsNativeModule.dll_9807FC9B3D830B4A.mvfrm
Library\Bee\artifacts\mvdfrm\UnityEngine.UIModule.dll_58FCB9EBEC1CE74C.mvfrm
Library\Bee\artifacts\mvdfrm\UnityEngine.UmbraModule.dll_96E6D681B752F645.mvfrm
Library\Bee\artifacts\mvdfrm\UnityEngine.UNETModule.dll_CFE974BC5DB91570.mvfrm
Library\Bee\artifacts\mvdfrm\UnityEngine.UnityAnalyticsCommonModule.dll_4D6845808F4A0A14.mvfrm
Library\Bee\artifacts\mvdfrm\UnityEngine.UnityAnalyticsModule.dll_A1BF3BAB7FC7B179.mvfrm
Library\Bee\artifacts\mvdfrm\UnityEngine.UnityConnectModule.dll_C7025C9072DFCA2D.mvfrm
Library\Bee\artifacts\mvdfrm\UnityEngine.UnityCurlModule.dll_4D388479538253CD.mvfrm
Library\Bee\artifacts\mvdfrm\UnityEngine.UnityTestProtocolModule.dll_E206F1608ACB4EBB.mvfrm
Library\Bee\artifacts\mvdfrm\UnityEngine.UnityWebRequestAssetBundleModule.dll_BA352BC4ACEEC70A.mvfrm
Library\Bee\artifacts\mvdfrm\UnityEngine.UnityWebRequestAudioModule.dll_2A25DC1AFBCC364E.mvfrm
Library\Bee\artifacts\mvdfrm\UnityEngine.UnityWebRequestModule.dll_9C9A02C4770026AC.mvfrm
Library\Bee\artifacts\mvdfrm\UnityEngine.UnityWebRequestTextureModule.dll_34C62AE17C34C1E3.mvfrm
Library\Bee\artifacts\mvdfrm\UnityEngine.UnityWebRequestWWWModule.dll_BAAB997A6F25E51F.mvfrm
Library\Bee\artifacts\mvdfrm\UnityEngine.VehiclesModule.dll_1E1B3399452D036F.mvfrm
Library\Bee\artifacts\mvdfrm\UnityEngine.VFXModule.dll_9EBB3D92EDCAED64.mvfrm
Library\Bee\artifacts\mvdfrm\UnityEngine.VideoModule.dll_411BAED3ECBE6677.mvfrm
Library\Bee\artifacts\mvdfrm\UnityEngine.VRModule.dll_ABCEE0718DD76CC4.mvfrm
Library\Bee\artifacts\mvdfrm\UnityEngine.WindModule.dll_B39207FBA1E09E60.mvfrm
Library\Bee\artifacts\mvdfrm\UnityEngine.XRModule.dll_DE8DA3761711BA22.mvfrm
Library\Bee\artifacts\mvdfrm\Unity.Android.Gradle.dll_6F001659814364B4.mvfrm
Library\Bee\artifacts\mvdfrm\Unity.Android.Types.dll_08300576BCA2D8C8.mvfrm
Library\Bee\artifacts\mvdfrm\Unity.Burst.Cecil.dll_421D6E900DD2D44B.mvfrm
Library\Bee\artifacts\mvdfrm\Unity.Burst.Cecil.Mdb.dll_68FCDB943CA15248.mvfrm
Library\Bee\artifacts\mvdfrm\Unity.Burst.Cecil.Pdb.dll_804F5403BB5653CB.mvfrm
Library\Bee\artifacts\mvdfrm\Unity.Burst.Cecil.Rocks.dll_BE8CD5DB3AA90B4B.mvfrm
Library\Bee\artifacts\mvdfrm\Unity.VisualScripting.Antlr3.Runtime.dll_F14F071D8F1F6935.mvfrm