%YAML 1.1
%TAG !u! tag:unity3d.com,2011:
--- !u!162 &1
EditorUserSettings:
  m_ObjectHideFlags: 0
  serializedVersion: 4
  m_ConfigSettings:
    RecentlyUsedSceneGuid-0:
      value: 5a08575f5207595a0f5d59741173094444164f7d7d2a23317c7a4465bbe1646d
      flags: 0
    RecentlyUsedSceneGuid-1:
      value: 05050d505302080a590b547416760c44431549797a7e73692e7b4a30bbe1666f
      flags: 0
    RecentlyUsedSceneGuid-2:
      value: 06050d05030d0d0f5c590f2443210644404e4f7e2d2e75682b7e4437bab5606b
      flags: 0
    RecentlyUsedSceneGuid-3:
      value: 530104565505590b5d5e5c7240730f404647487a7c7876607d794d63b2b06468
      flags: 0
    RecentlyUsedSceneGuid-4:
      value: 5650525155075f5f545b5f7a1273084445151929297f20667d7c4a35e0b8353c
      flags: 0
    RecentlyUsedSceneGuid-5:
      value: 0655010250055b5f0b585b7747260c444e4f482e2e7d20327e2d486ae1b8303e
      flags: 0
    RecentlyUsedSceneGuid-6:
      value: 0009065e060308090e5a5f7314775d44134f4f2e7e7e20672b2a1830e4e3616e
      flags: 0
    RecentlyUsedSceneGuid-7:
      value: 51010d0203565d0f595d0a7016775d44141549732e7922637a2f1b62b3e5653e
      flags: 0
    RecentlyUsedSceneGuid-8:
      value: 500400540603500f595b557b46200b44474e4f287c2975692e2a4a31b0b76369
      flags: 0
    vcSharedLogLevel:
      value: 0d5e400f0650
      flags: 0
  m_VCAutomaticAdd: 1
  m_VCDebugCom: 0
  m_VCDebugCmd: 0
  m_VCDebugOut: 0
  m_SemanticMergeMode: 2
  m_DesiredImportWorkerCount: 2
  m_StandbyImportWorkerCount: 2
  m_IdleImportWorkerShutdownDelay: 60000
  m_VCShowFailedCheckout: 1
  m_VCOverwriteFailedCheckoutAssets: 1
  m_VCProjectOverlayIcons: 1
  m_VCHierarchyOverlayIcons: 1
  m_VCOtherOverlayIcons: 1
  m_VCAllowAsyncUpdate: 1
  m_ArtifactGarbageCollection: 1
